Memory/memory_modules_tb.vcd
$version Generated by VerilatedVcd $end
$timescale 1ps $end
 $scope module $rootio $end
  $var wire 1 )! clk $end
  $var wire 4 *! u_addr_l [3:0] $end
  $var wire 4 +! u_addr_r [3:0] $end
  $var wire 1 ,! u_wr_en_l $end
  $var wire 1 -! u_wr_en_r $end
  $var wire 40 .! u_data_in_l [39:0] $end
  $var wire 40 0! u_data_in_r [39:0] $end
  $var wire 40 2! u_data_out_l [39:0] $end
  $var wire 40 4! u_data_out_r [39:0] $end
 $upscope $end
 $scope module intermediate_result_registers $end
  $var wire 1 )! clk $end
  $var wire 4 *! u_addr_l [3:0] $end
  $var wire 4 +! u_addr_r [3:0] $end
  $var wire 1 ,! u_wr_en_l $end
  $var wire 1 -! u_wr_en_r $end
  $var wire 40 .! u_data_in_l [39:0] $end
  $var wire 40 0! u_data_in_r [39:0] $end
  $var wire 40 2! u_data_out_l [39:0] $end
  $var wire 40 4! u_data_out_r [39:0] $end
  $var wire 40 7 u_regs_l[0] [39:0] $end
  $var wire 40 9 u_regs_l[1] [39:0] $end
  $var wire 40 ; u_regs_l[2] [39:0] $end
  $var wire 40 = u_regs_l[3] [39:0] $end
  $var wire 40 ? u_regs_l[4] [39:0] $end
  $var wire 40 A u_regs_l[5] [39:0] $end
  $var wire 40 C u_regs_l[6] [39:0] $end
  $var wire 40 E u_regs_l[7] [39:0] $end
  $var wire 40 G u_regs_l[8] [39:0] $end
  $var wire 40 I u_regs_l[9] [39:0] $end
  $var wire 40 K u_regs_l[10] [39:0] $end
  $var wire 40 M u_regs_l[11] [39:0] $end
  $var wire 40 O u_regs_l[12] [39:0] $end
  $var wire 40 Q u_regs_l[13] [39:0] $end
  $var wire 40 S u_regs_l[14] [39:0] $end
  $var wire 40 U u_regs_l[15] [39:0] $end
  $var wire 40 W u_regs_r[0] [39:0] $end
  $var wire 40 Y u_regs_r[1] [39:0] $end
  $var wire 40 [ u_regs_r[2] [39:0] $end
  $var wire 40 ] u_regs_r[3] [39:0] $end
  $var wire 40 _ u_regs_r[4] [39:0] $end
  $var wire 40 a u_regs_r[5] [39:0] $end
  $var wire 40 c u_regs_r[6] [39:0] $end
  $var wire 40 e u_regs_r[7] [39:0] $end
  $var wire 40 g u_regs_r[8] [39:0] $end
  $var wire 40 i u_regs_r[9] [39:0] $end
  $var wire 40 k u_regs_r[10] [39:0] $end
  $var wire 40 m u_regs_r[11] [39:0] $end
  $var wire 40 o u_regs_r[12] [39:0] $end
  $var wire 40 q u_regs_r[13] [39:0] $end
  $var wire 40 s u_regs_r[14] [39:0] $end
  $var wire 40 u u_regs_r[15] [39:0] $end
 $upscope $end
 $scope module tb_memory_modules $end
  $var wire 1 6! clk $end
  $var wire 1 # rst_n $end
  $var wire 1 $ rj_wr_en $end
  $var wire 4 % rj_addr [3:0] $end
  $var wire 16 & rj_data_in [15:0] $end
  $var wire 16 7! rj_data_out [15:0] $end
  $var wire 1 ' coeff_wr_en $end
  $var wire 9 ( coeff_addr [8:0] $end
  $var wire 16 ) coeff_data_in [15:0] $end
  $var wire 16 8! coeff_data_out [15:0] $end
  $var wire 1 * data_wr_en_l $end
  $var wire 1 + data_wr_en_r $end
  $var wire 4 , read_offset_l [3:0] $end
  $var wire 4 - read_offset_r [3:0] $end
  $var wire 16 . data_in_l [15:0] $end
  $var wire 16 / data_in_r [15:0] $end
  $var wire 16 9! data_out_l [15:0] $end
  $var wire 16 :! data_out_r [15:0] $end
  $scope module coeff_mem $end
   $var wire 1 6! clk $end
   $var wire 1 ' coeff_wr_en $end
   $var wire 9 ( coeff_addr [8:0] $end
   $var wire 16 ) coeff_data_in [15:0] $end
   $var wire 16 8! coeff_data_out [15:0] $end
  $upscope $end
  $scope module data_fifo $end
   $var wire 1 6! clk $end
   $var wire 1 # rst_n $end
   $var wire 1 * data_wr_en_l $end
   $var wire 1 + data_wr_en_r $end
   $var wire 4 , read_offset_l [3:0] $end
   $var wire 4 - read_offset_r [3:0] $end
   $var wire 16 . data_in_l [15:0] $end
   $var wire 16 / data_in_r [15:0] $end
   $var wire 16 9! data_out_l [15:0] $end
   $var wire 16 :! data_out_r [15:0] $end
   $var wire 8 ;! wr_ptr_l [7:0] $end
   $var wire 8 <! wr_ptr_r [7:0] $end
   $var wire 8 =! read_addr_l [7:0] $end
   $var wire 8 >! read_addr_r [7:0] $end
  $upscope $end
  $scope module rj_mem $end
   $var wire 1 6! clk $end
   $var wire 1 $ rj_wr_en $end
   $var wire 4 % rj_addr [3:0] $end
   $var wire 16 & rj_data_in [15:0] $end
   $var wire 16 7! rj_data_out [15:0] $end
   $var wire 16 w rj_mem[0] [15:0] $end
   $var wire 16 x rj_mem[1] [15:0] $end
   $var wire 16 y rj_mem[2] [15:0] $end
   $var wire 16 z rj_mem[3] [15:0] $end
   $var wire 16 { rj_mem[4] [15:0] $end
   $var wire 16 | rj_mem[5] [15:0] $end
   $var wire 16 } rj_mem[6] [15:0] $end
   $var wire 16 ~ rj_mem[7] [15:0] $end
   $var wire 16 !! rj_mem[8] [15:0] $end
   $var wire 16 "! rj_mem[9] [15:0] $end
   $var wire 16 #! rj_mem[10] [15:0] $end
   $var wire 16 $! rj_mem[11] [15:0] $end
   $var wire 16 %! rj_mem[12] [15:0] $end
   $var wire 16 &! rj_mem[13] [15:0] $end
   $var wire 16 '! rj_mem[14] [15:0] $end
   $var wire 16 (! rj_mem[15] [15:0] $end
  $upscope $end
  $scope module unnamedblk1 $end
   $var wire 32 0 i [31:0] $end
  $upscope $end
  $scope module unnamedblk2 $end
   $var wire 32 1 i [31:0] $end
  $upscope $end
  $scope module unnamedblk3 $end
   $var wire 32 2 i [31:0] $end
  $upscope $end
  $scope module unnamedblk4 $end
   $var wire 32 3 i [31:0] $end
  $upscope $end
  $scope module unnamedblk5 $end
   $var wire 32 4 i [31:0] $end
  $upscope $end
  $scope module unnamedblk6 $end
   $var wire 32 5 i [31:0] $end
  $upscope $end
  $scope module unnamedblk7 $end
   $var wire 32 6 i [31:0] $end
  $upscope $end
 $upscope $end
$enddefinitions $end


#0
0#
0$
b0000 %
b0000000000000000 &
0'
b000000000 (
b0000000000000000 )
0*
0+
b0000 ,
b0000 -
b0000000000000000 .
b0000000000000000 /
b00000000000000000000000000000000 0
b00000000000000000000000000000000 1
b00000000000000000000000000000000 2
b00000000000000000000000000000000 3
b00000000000000000000000000000000 4
b00000000000000000000000000000000 5
b00000000000000000000000000000000 6
b0000000000000000000000000000000000000000 7
b0000000000000000000000000000000000000000 9
b0000000000000000000000000000000000000000 ;
b0000000000000000000000000000000000000000 =
b0000000000000000000000000000000000000000 ?
b0000000000000000000000000000000000000000 A
b0000000000000000000000000000000000000000 C
b0000000000000000000000000000000000000000 E
b0000000000000000000000000000000000000000 G
b0000000000000000000000000000000000000000 I
b0000000000000000000000000000000000000000 K
b0000000000000000000000000000000000000000 M
b0000000000000000000000000000000000000000 O
b0000000000000000000000000000000000000000 Q
b0000000000000000000000000000000000000000 S
b0000000000000000000000000000000000000000 U
b0000000000000000000000000000000000000000 W
b0000000000000000000000000000000000000000 Y
b0000000000000000000000000000000000000000 [
b0000000000000000000000000000000000000000 ]
b0000000000000000000000000000000000000000 _
b0000000000000000000000000000000000000000 a
b0000000000000000000000000000000000000000 c
b0000000000000000000000000000000000000000 e
b0000000000000000000000000000000000000000 g
b0000000000000000000000000000000000000000 i
b0000000000000000000000000000000000000000 k
b0000000000000000000000000000000000000000 m
b0000000000000000000000000000000000000000 o
b0000000000000000000000000000000000000000 q
b0000000000000000000000000000000000000000 s
b0000000000000000000000000000000000000000 u
b0000000000000000 w
b0000000000000000 x
b0000000000000000 y
b0000000000000000 z
b0000000000000000 {
b0000000000000000 |
b0000000000000000 }
b0000000000000000 ~
b0000000000000000 !!
b0000000000000000 "!
b0000000000000000 #!
b0000000000000000 $!
b0000000000000000 %!
b0000000000000000 &!
b0000000000000000 '!
b0000000000000000 (!
0)!
b0000 *!
b0000 +!
0,!
0-!
b0000000000000000000000000000000000000000 .!
b0000000000000000000000000000000000000000 0!
b0000000000000000000000000000000000000000 2!
b0000000000000000000000000000000000000000 4!
06!
b0000000000000000 7!
b0000000000000000 8!
b0000000000000000 9!
b0000000000000000 :!
b00000000 ;!
b00000000 <!
b00000000 =!
b00000000 >!
#5
1#
16!
#10
06!
#15
1$
b1010000000000000 &
b00000000000000000000000000000001 0
b1010000000000000 w
16!
b1010000000000000 7!
#20
06!
#25
b0001 %
b1010000000000001 &
b00000000000000000000000000000010 0
b1010000000000001 x
16!
b1010000000000001 7!
#30
06!
#35
b0010 %
b1010000000000010 &
b00000000000000000000000000000011 0
b1010000000000010 y
16!
b1010000000000010 7!
#40
06!
#45
b0011 %
b1010000000000011 &
b00000000000000000000000000000100 0
b1010000000000011 z
16!
b1010000000000011 7!
#50
06!
#55
b0100 %
b1010000000000100 &
b00000000000000000000000000000101 0
b1010000000000100 {
16!
b1010000000000100 7!
#60
06!
#65
b0101 %
b1010000000000101 &
b00000000000000000000000000000110 0
b1010000000000101 |
16!
b1010000000000101 7!
#70
06!
#75
b0110 %
b1010000000000110 &
b00000000000000000000000000000111 0
b1010000000000110 }
16!
b1010000000000110 7!
#80
06!
#85
b0111 %
b1010000000000111 &
b00000000000000000000000000001000 0
b1010000000000111 ~
16!
b1010000000000111 7!
#90
06!
#95
b1000 %
b1010000000001000 &
b00000000000000000000000000001001 0
b1010000000001000 !!
16!
b1010000000001000 7!
#100
06!
#105
b1001 %
b1010000000001001 &
b00000000000000000000000000001010 0
b1010000000001001 "!
16!
b1010000000001001 7!
#110
06!
#115
b1010 %
b1010000000001010 &
b00000000000000000000000000001011 0
b1010000000001010 #!
16!
b1010000000001010 7!
#120
06!
#125
b1011 %
b1010000000001011 &
b00000000000000000000000000001100 0
b1010000000001011 $!
16!
b1010000000001011 7!
#130
06!
#135
b1100 %
b1010000000001100 &
b00000000000000000000000000001101 0
b1010000000001100 %!
16!
b1010000000001100 7!
#140
06!
#145
b1101 %
b1010000000001101 &
b00000000000000000000000000001110 0
b1010000000001101 &!
16!
b1010000000001101 7!
#150
06!
#155
b1110 %
b1010000000001110 &
b00000000000000000000000000001111 0
b1010000000001110 '!
16!
b1010000000001110 7!
#160
06!
#165
b1111 %
b1010000000001111 &
b00000000000000000000000000010000 0
b1010000000001111 (!
16!
b1010000000001111 7!
#170
06!
#175
0$
16!
#180
06!
#185
b0000 %
16!
b1010000000000000 7!
#186
b00000000000000000000000000000001 1
#190
06!
#195
b0001 %
16!
b1010000000000001 7!
#196
b00000000000000000000000000000010 1
#200
06!
#205
b0010 %
16!
b1010000000000010 7!
#206
b00000000000000000000000000000011 1
#210
06!
#215
b0011 %
16!
b1010000000000011 7!
#216
b00000000000000000000000000000100 1
#220
06!
#225
b0100 %
16!
b1010000000000100 7!
#226
b00000000000000000000000000000101 1
#230
06!
#235
b0101 %
16!
b1010000000000101 7!
#236
b00000000000000000000000000000110 1
#240
06!
#245
b0110 %
16!
b1010000000000110 7!
#246
b00000000000000000000000000000111 1
#250
06!
#255
b0111 %
16!
b1010000000000111 7!
#256
b00000000000000000000000000001000 1
#260
06!
#265
b1000 %
16!
b1010000000001000 7!
#266
b00000000000000000000000000001001 1
#270
06!
#275
b1001 %
16!
b1010000000001001 7!
#276
b00000000000000000000000000001010 1
#280
06!
#285
b1010 %
16!
b1010000000001010 7!
#286
b00000000000000000000000000001011 1
#290
06!
#295
b1011 %
16!
b1010000000001011 7!
#296
b00000000000000000000000000001100 1
#300
06!
#305
b1100 %
16!
b1010000000001100 7!
#306
b00000000000000000000000000001101 1
#310
06!
#315
b1101 %
16!
b1010000000001101 7!
#316
b00000000000000000000000000001110 1
#320
06!
#325
b1110 %
16!
b1010000000001110 7!
#326
b00000000000000000000000000001111 1
#330
06!
#335
b1111 %
16!
b1010000000001111 7!
#336
b00000000000000000000000000010000 1
#340
06!
#345
1'
b1011000000000000 )
b00000000000000000000000000000001 2
16!
b1011000000000000 8!
#350
06!
#355
b000000001 (
b1011000000000001 )
b00000000000000000000000000000010 2
16!
b1011000000000001 8!
#360
06!
#365
b000000010 (
b1011000000000010 )
b00000000000000000000000000000011 2
16!
b1011000000000010 8!
#370
06!
#375
b000000011 (
b1011000000000011 )
b00000000000000000000000000000100 2
16!
b1011000000000011 8!
#380
06!
#385
b000000100 (
b1011000000000100 )
b00000000000000000000000000000101 2
16!
b1011000000000100 8!
#390
06!
#395
b000000101 (
b1011000000000101 )
b00000000000000000000000000000110 2
16!
b1011000000000101 8!
#400
06!
#405
b000000110 (
b1011000000000110 )
b00000000000000000000000000000111 2
16!
b1011000000000110 8!
#410
06!
#415
b000000111 (
b1011000000000111 )
b00000000000000000000000000001000 2
16!
b1011000000000111 8!
#420
06!
#425
b000001000 (
b1011000000001000 )
b00000000000000000000000000001001 2
16!
b1011000000001000 8!
#430
06!
#435
b000001001 (
b1011000000001001 )
b00000000000000000000000000001010 2
16!
b1011000000001001 8!
#440
06!
#445
b000001010 (
b1011000000001010 )
b00000000000000000000000000001011 2
16!
b1011000000001010 8!
#450
06!
#455
b000001011 (
b1011000000001011 )
b00000000000000000000000000001100 2
16!
b1011000000001011 8!
#460
06!
#465
b000001100 (
b1011000000001100 )
b00000000000000000000000000001101 2
16!
b1011000000001100 8!
#470
06!
#475
b000001101 (
b1011000000001101 )
b00000000000000000000000000001110 2
16!
b1011000000001101 8!
#480
06!
#485
b000001110 (
b1011000000001110 )
b00000000000000000000000000001111 2
16!
b1011000000001110 8!
#490
06!
#495
b000001111 (
b1011000000001111 )
b00000000000000000000000000010000 2
16!
b1011000000001111 8!
#500
06!
#505
b000010000 (
b1011000000010000 )
b00000000000000000000000000010001 2
16!
b1011000000010000 8!
#510
06!
#515
b000010001 (
b1011000000010001 )
b00000000000000000000000000010010 2
16!
b1011000000010001 8!
#520
06!
#525
b000010010 (
b1011000000010010 )
b00000000000000000000000000010011 2
16!
b1011000000010010 8!
#530
06!
#535
b000010011 (
b1011000000010011 )
b00000000000000000000000000010100 2
16!
b1011000000010011 8!
#540
06!
#545
b000010100 (
b1011000000010100 )
b00000000000000000000000000010101 2
16!
b1011000000010100 8!
#550
06!
#555
b000010101 (
b1011000000010101 )
b00000000000000000000000000010110 2
16!
b1011000000010101 8!
#560
06!
#565
b000010110 (
b1011000000010110 )
b00000000000000000000000000010111 2
16!
b1011000000010110 8!
#570
06!
#575
b000010111 (
b1011000000010111 )
b00000000000000000000000000011000 2
16!
b1011000000010111 8!
#580
06!
#585
b000011000 (
b1011000000011000 )
b00000000000000000000000000011001 2
16!
b1011000000011000 8!
#590
06!
#595
b000011001 (
b1011000000011001 )
b00000000000000000000000000011010 2
16!
b1011000000011001 8!
#600
06!
#605
b000011010 (
b1011000000011010 )
b00000000000000000000000000011011 2
16!
b1011000000011010 8!
#610
06!
#615
b000011011 (
b1011000000011011 )
b00000000000000000000000000011100 2
16!
b1011000000011011 8!
#620
06!
#625
b000011100 (
b1011000000011100 )
b00000000000000000000000000011101 2
16!
b1011000000011100 8!
#630
06!
#635
b000011101 (
b1011000000011101 )
b00000000000000000000000000011110 2
16!
b1011000000011101 8!
#640
06!
#645
b000011110 (
b1011000000011110 )
b00000000000000000000000000011111 2
16!
b1011000000011110 8!
#650
06!
#655
b000011111 (
b1011000000011111 )
b00000000000000000000000000100000 2
16!
b1011000000011111 8!
#660
06!
#665
b000100000 (
b1011000000100000 )
b00000000000000000000000000100001 2
16!
b1011000000100000 8!
#670
06!
#675
b000100001 (
b1011000000100001 )
b00000000000000000000000000100010 2
16!
b1011000000100001 8!
#680
06!
#685
b000100010 (
b1011000000100010 )
b00000000000000000000000000100011 2
16!
b1011000000100010 8!
#690
06!
#695
b000100011 (
b1011000000100011 )
b00000000000000000000000000100100 2
16!
b1011000000100011 8!
#700
06!
#705
b000100100 (
b1011000000100100 )
b00000000000000000000000000100101 2
16!
b1011000000100100 8!
#710
06!
#715
b000100101 (
b1011000000100101 )
b00000000000000000000000000100110 2
16!
b1011000000100101 8!
#720
06!
#725
b000100110 (
b1011000000100110 )
b00000000000000000000000000100111 2
16!
b1011000000100110 8!
#730
06!
#735
b000100111 (
b1011000000100111 )
b00000000000000000000000000101000 2
16!
b1011000000100111 8!
#740
06!
#745
b000101000 (
b1011000000101000 )
b00000000000000000000000000101001 2
16!
b1011000000101000 8!
#750
06!
#755
b000101001 (
b1011000000101001 )
b00000000000000000000000000101010 2
16!
b1011000000101001 8!
#760
06!
#765
b000101010 (
b1011000000101010 )
b00000000000000000000000000101011 2
16!
b1011000000101010 8!
#770
06!
#775
b000101011 (
b1011000000101011 )
b00000000000000000000000000101100 2
16!
b1011000000101011 8!
#780
06!
#785
b000101100 (
b1011000000101100 )
b00000000000000000000000000101101 2
16!
b1011000000101100 8!
#790
06!
#795
b000101101 (
b1011000000101101 )
b00000000000000000000000000101110 2
16!
b1011000000101101 8!
#800
06!
#805
b000101110 (
b1011000000101110 )
b00000000000000000000000000101111 2
16!
b1011000000101110 8!
#810
06!
#815
b000101111 (
b1011000000101111 )
b00000000000000000000000000110000 2
16!
b1011000000101111 8!
#820
06!
#825
b000110000 (
b1011000000110000 )
b00000000000000000000000000110001 2
16!
b1011000000110000 8!
#830
06!
#835
b000110001 (
b1011000000110001 )
b00000000000000000000000000110010 2
16!
b1011000000110001 8!
#840
06!
#845
b000110010 (
b1011000000110010 )
b00000000000000000000000000110011 2
16!
b1011000000110010 8!
#850
06!
#855
b000110011 (
b1011000000110011 )
b00000000000000000000000000110100 2
16!
b1011000000110011 8!
#860
06!
#865
b000110100 (
b1011000000110100 )
b00000000000000000000000000110101 2
16!
b1011000000110100 8!
#870
06!
#875
b000110101 (
b1011000000110101 )
b00000000000000000000000000110110 2
16!
b1011000000110101 8!
#880
06!
#885
b000110110 (
b1011000000110110 )
b00000000000000000000000000110111 2
16!
b1011000000110110 8!
#890
06!
#895
b000110111 (
b1011000000110111 )
b00000000000000000000000000111000 2
16!
b1011000000110111 8!
#900
06!
#905
b000111000 (
b1011000000111000 )
b00000000000000000000000000111001 2
16!
b1011000000111000 8!
#910
06!
#915
b000111001 (
b1011000000111001 )
b00000000000000000000000000111010 2
16!
b1011000000111001 8!
#920
06!
#925
b000111010 (
b1011000000111010 )
b00000000000000000000000000111011 2
16!
b1011000000111010 8!
#930
06!
#935
b000111011 (
b1011000000111011 )
b00000000000000000000000000111100 2
16!
b1011000000111011 8!
#940
06!
#945
b000111100 (
b1011000000111100 )
b00000000000000000000000000111101 2
16!
b1011000000111100 8!
#950
06!
#955
b000111101 (
b1011000000111101 )
b00000000000000000000000000111110 2
16!
b1011000000111101 8!
#960
06!
#965
b000111110 (
b1011000000111110 )
b00000000000000000000000000111111 2
16!
b1011000000111110 8!
#970
06!
#975
b000111111 (
b1011000000111111 )
b00000000000000000000000001000000 2
16!
b1011000000111111 8!
#980
06!
#985
b001000000 (
b1011000001000000 )
b00000000000000000000000001000001 2
16!
b1011000001000000 8!
#990
06!
#995
b001000001 (
b1011000001000001 )
b00000000000000000000000001000010 2
16!
b1011000001000001 8!
#1000
06!
#1005
b001000010 (
b1011000001000010 )
b00000000000000000000000001000011 2
16!
b1011000001000010 8!
#1010
06!
#1015
b001000011 (
b1011000001000011 )
b00000000000000000000000001000100 2
16!
b1011000001000011 8!
#1020
06!
#1025
b001000100 (
b1011000001000100 )
b00000000000000000000000001000101 2
16!
b1011000001000100 8!
#1030
06!
#1035
b001000101 (
b1011000001000101 )
b00000000000000000000000001000110 2
16!
b1011000001000101 8!
#1040
06!
#1045
b001000110 (
b1011000001000110 )
b00000000000000000000000001000111 2
16!
b1011000001000110 8!
#1050
06!
#1055
b001000111 (
b1011000001000111 )
b00000000000000000000000001001000 2
16!
b1011000001000111 8!
#1060
06!
#1065
b001001000 (
b1011000001001000 )
b00000000000000000000000001001001 2
16!
b1011000001001000 8!
#1070
06!
#1075
b001001001 (
b1011000001001001 )
b00000000000000000000000001001010 2
16!
b1011000001001001 8!
#1080
06!
#1085
b001001010 (
b1011000001001010 )
b00000000000000000000000001001011 2
16!
b1011000001001010 8!
#1090
06!
#1095
b001001011 (
b1011000001001011 )
b00000000000000000000000001001100 2
16!
b1011000001001011 8!
#1100
06!
#1105
b001001100 (
b1011000001001100 )
b00000000000000000000000001001101 2
16!
b1011000001001100 8!
#1110
06!
#1115
b001001101 (
b1011000001001101 )
b00000000000000000000000001001110 2
16!
b1011000001001101 8!
#1120
06!
#1125
b001001110 (
b1011000001001110 )
b00000000000000000000000001001111 2
16!
b1011000001001110 8!
#1130
06!
#1135
b001001111 (
b1011000001001111 )
b00000000000000000000000001010000 2
16!
b1011000001001111 8!
#1140
06!
#1145
b001010000 (
b1011000001010000 )
b00000000000000000000000001010001 2
16!
b1011000001010000 8!
#1150
06!
#1155
b001010001 (
b1011000001010001 )
b00000000000000000000000001010010 2
16!
b1011000001010001 8!
#1160
06!
#1165
b001010010 (
b1011000001010010 )
b00000000000000000000000001010011 2
16!
b1011000001010010 8!
#1170
06!
#1175
b001010011 (
b1011000001010011 )
b00000000000000000000000001010100 2
16!
b1011000001010011 8!
#1180
06!
#1185
b001010100 (
b1011000001010100 )
b00000000000000000000000001010101 2
16!
b1011000001010100 8!
#1190
06!
#1195
b001010101 (
b1011000001010101 )
b00000000000000000000000001010110 2
16!
b1011000001010101 8!
#1200
06!
#1205
b001010110 (
b1011000001010110 )
b00000000000000000000000001010111 2
16!
b1011000001010110 8!
#1210
06!
#1215
b001010111 (
b1011000001010111 )
b00000000000000000000000001011000 2
16!
b1011000001010111 8!
#1220
06!
#1225
b001011000 (
b1011000001011000 )
b00000000000000000000000001011001 2
16!
b1011000001011000 8!
#1230
06!
#1235
b001011001 (
b1011000001011001 )
b00000000000000000000000001011010 2
16!
b1011000001011001 8!
#1240
06!
#1245
b001011010 (
b1011000001011010 )
b00000000000000000000000001011011 2
16!
b1011000001011010 8!
#1250
06!
#1255
b001011011 (
b1011000001011011 )
b00000000000000000000000001011100 2
16!
b1011000001011011 8!
#1260
06!
#1265
b001011100 (
b1011000001011100 )
b00000000000000000000000001011101 2
16!
b1011000001011100 8!
#1270
06!
#1275
b001011101 (
b1011000001011101 )
b00000000000000000000000001011110 2
16!
b1011000001011101 8!
#1280
06!
#1285
b001011110 (
b1011000001011110 )
b00000000000000000000000001011111 2
16!
b1011000001011110 8!
#1290
06!
#1295
b001011111 (
b1011000001011111 )
b00000000000000000000000001100000 2
16!
b1011000001011111 8!
#1300
06!
#1305
b001100000 (
b1011000001100000 )
b00000000000000000000000001100001 2
16!
b1011000001100000 8!
#1310
06!
#1315
b001100001 (
b1011000001100001 )
b00000000000000000000000001100010 2
16!
b1011000001100001 8!
#1320
06!
#1325
b001100010 (
b1011000001100010 )
b00000000000000000000000001100011 2
16!
b1011000001100010 8!
#1330
06!
#1335
b001100011 (
b1011000001100011 )
b00000000000000000000000001100100 2
16!
b1011000001100011 8!
#1340
06!
#1345
b001100100 (
b1011000001100100 )
b00000000000000000000000001100101 2
16!
b1011000001100100 8!
#1350
06!
#1355
b001100101 (
b1011000001100101 )
b00000000000000000000000001100110 2
16!
b1011000001100101 8!
#1360
06!
#1365
b001100110 (
b1011000001100110 )
b00000000000000000000000001100111 2
16!
b1011000001100110 8!
#1370
06!
#1375
b001100111 (
b1011000001100111 )
b00000000000000000000000001101000 2
16!
b1011000001100111 8!
#1380
06!
#1385
b001101000 (
b1011000001101000 )
b00000000000000000000000001101001 2
16!
b1011000001101000 8!
#1390
06!
#1395
b001101001 (
b1011000001101001 )
b00000000000000000000000001101010 2
16!
b1011000001101001 8!
#1400
06!
#1405
b001101010 (
b1011000001101010 )
b00000000000000000000000001101011 2
16!
b1011000001101010 8!
#1410
06!
#1415
b001101011 (
b1011000001101011 )
b00000000000000000000000001101100 2
16!
b1011000001101011 8!
#1420
06!
#1425
b001101100 (
b1011000001101100 )
b00000000000000000000000001101101 2
16!
b1011000001101100 8!
#1430
06!
#1435
b001101101 (
b1011000001101101 )
b00000000000000000000000001101110 2
16!
b1011000001101101 8!
#1440
06!
#1445
b001101110 (
b1011000001101110 )
b00000000000000000000000001101111 2
16!
b1011000001101110 8!
#1450
06!
#1455
b001101111 (
b1011000001101111 )
b00000000000000000000000001110000 2
16!
b1011000001101111 8!
#1460
06!
#1465
b001110000 (
b1011000001110000 )
b00000000000000000000000001110001 2
16!
b1011000001110000 8!
#1470
06!
#1475
b001110001 (
b1011000001110001 )
b00000000000000000000000001110010 2
16!
b1011000001110001 8!
#1480
06!
#1485
b001110010 (
b1011000001110010 )
b00000000000000000000000001110011 2
16!
b1011000001110010 8!
#1490
06!
#1495
b001110011 (
b1011000001110011 )
b00000000000000000000000001110100 2
16!
b1011000001110011 8!
#1500
06!
#1505
b001110100 (
b1011000001110100 )
b00000000000000000000000001110101 2
16!
b1011000001110100 8!
#1510
06!
#1515
b001110101 (
b1011000001110101 )
b00000000000000000000000001110110 2
16!
b1011000001110101 8!
#1520
06!
#1525
b001110110 (
b1011000001110110 )
b00000000000000000000000001110111 2
16!
b1011000001110110 8!
#1530
06!
#1535
b001110111 (
b1011000001110111 )
b00000000000000000000000001111000 2
16!
b1011000001110111 8!
#1540
06!
#1545
b001111000 (
b1011000001111000 )
b00000000000000000000000001111001 2
16!
b1011000001111000 8!
#1550
06!
#1555
b001111001 (
b1011000001111001 )
b00000000000000000000000001111010 2
16!
b1011000001111001 8!
#1560
06!
#1565
b001111010 (
b1011000001111010 )
b00000000000000000000000001111011 2
16!
b1011000001111010 8!
#1570
06!
#1575
b001111011 (
b1011000001111011 )
b00000000000000000000000001111100 2
16!
b1011000001111011 8!
#1580
06!
#1585
b001111100 (
b1011000001111100 )
b00000000000000000000000001111101 2
16!
b1011000001111100 8!
#1590
06!
#1595
b001111101 (
b1011000001111101 )
b00000000000000000000000001111110 2
16!
b1011000001111101 8!
#1600
06!
#1605
b001111110 (
b1011000001111110 )
b00000000000000000000000001111111 2
16!
b1011000001111110 8!
#1610
06!
#1615
b001111111 (
b1011000001111111 )
b00000000000000000000000010000000 2
16!
b1011000001111111 8!
#1620
06!
#1625
b010000000 (
b1011000010000000 )
b00000000000000000000000010000001 2
16!
b1011000010000000 8!
#1630
06!
#1635
b010000001 (
b1011000010000001 )
b00000000000000000000000010000010 2
16!
b1011000010000001 8!
#1640
06!
#1645
b010000010 (
b1011000010000010 )
b00000000000000000000000010000011 2
16!
b1011000010000010 8!
#1650
06!
#1655
b010000011 (
b1011000010000011 )
b00000000000000000000000010000100 2
16!
b1011000010000011 8!
#1660
06!
#1665
b010000100 (
b1011000010000100 )
b00000000000000000000000010000101 2
16!
b1011000010000100 8!
#1670
06!
#1675
b010000101 (
b1011000010000101 )
b00000000000000000000000010000110 2
16!
b1011000010000101 8!
#1680
06!
#1685
b010000110 (
b1011000010000110 )
b00000000000000000000000010000111 2
16!
b1011000010000110 8!
#1690
06!
#1695
b010000111 (
b1011000010000111 )
b00000000000000000000000010001000 2
16!
b1011000010000111 8!
#1700
06!
#1705
b010001000 (
b1011000010001000 )
b00000000000000000000000010001001 2
16!
b1011000010001000 8!
#1710
06!
#1715
b010001001 (
b1011000010001001 )
b00000000000000000000000010001010 2
16!
b1011000010001001 8!
#1720
06!
#1725
b010001010 (
b1011000010001010 )
b00000000000000000000000010001011 2
16!
b1011000010001010 8!
#1730
06!
#1735
b010001011 (
b1011000010001011 )
b00000000000000000000000010001100 2
16!
b1011000010001011 8!
#1740
06!
#1745
b010001100 (
b1011000010001100 )
b00000000000000000000000010001101 2
16!
b1011000010001100 8!
#1750
06!
#1755
b010001101 (
b1011000010001101 )
b00000000000000000000000010001110 2
16!
b1011000010001101 8!
#1760
06!
#1765
b010001110 (
b1011000010001110 )
b00000000000000000000000010001111 2
16!
b1011000010001110 8!
#1770
06!
#1775
b010001111 (
b1011000010001111 )
b00000000000000000000000010010000 2
16!
b1011000010001111 8!
#1780
06!
#1785
b010010000 (
b1011000010010000 )
b00000000000000000000000010010001 2
16!
b1011000010010000 8!
#1790
06!
#1795
b010010001 (
b1011000010010001 )
b00000000000000000000000010010010 2
16!
b1011000010010001 8!
#1800
06!
#1805
b010010010 (
b1011000010010010 )
b00000000000000000000000010010011 2
16!
b1011000010010010 8!
#1810
06!
#1815
b010010011 (
b1011000010010011 )
b00000000000000000000000010010100 2
16!
b1011000010010011 8!
#1820
06!
#1825
b010010100 (
b1011000010010100 )
b00000000000000000000000010010101 2
16!
b1011000010010100 8!
#1830
06!
#1835
b010010101 (
b1011000010010101 )
b00000000000000000000000010010110 2
16!
b1011000010010101 8!
#1840
06!
#1845
b010010110 (
b1011000010010110 )
b00000000000000000000000010010111 2
16!
b1011000010010110 8!
#1850
06!
#1855
b010010111 (
b1011000010010111 )
b00000000000000000000000010011000 2
16!
b1011000010010111 8!
#1860
06!
#1865
b010011000 (
b1011000010011000 )
b00000000000000000000000010011001 2
16!
b1011000010011000 8!
#1870
06!
#1875
b010011001 (
b1011000010011001 )
b00000000000000000000000010011010 2
16!
b1011000010011001 8!
#1880
06!
#1885
b010011010 (
b1011000010011010 )
b00000000000000000000000010011011 2
16!
b1011000010011010 8!
#1890
06!
#1895
b010011011 (
b1011000010011011 )
b00000000000000000000000010011100 2
16!
b1011000010011011 8!
#1900
06!
#1905
b010011100 (
b1011000010011100 )
b00000000000000000000000010011101 2
16!
b1011000010011100 8!
#1910
06!
#1915
b010011101 (
b1011000010011101 )
b00000000000000000000000010011110 2
16!
b1011000010011101 8!
#1920
06!
#1925
b010011110 (
b1011000010011110 )
b00000000000000000000000010011111 2
16!
b1011000010011110 8!
#1930
06!
#1935
b010011111 (
b1011000010011111 )
b00000000000000000000000010100000 2
16!
b1011000010011111 8!
#1940
06!
