Memory/tb.vcd
$version Generated by VerilatedVcd $end
$timescale 1ps $end
 $scope module $rootio $end
 $upscope $end
 $scope module tb_memory_modules $end
  $var wire 1 _ clk $end
  $var wire 1 # rst_n $end
  $var wire 1 $ rj_wr_en_l $end
  $var wire 1 % rj_wr_en_r $end
  $var wire 4 & rj_addr_l [3:0] $end
  $var wire 4 ' rj_addr_r [3:0] $end
  $var wire 16 ( rj_data_in_l [15:0] $end
  $var wire 16 ) rj_data_in_r [15:0] $end
  $var wire 16 ` rj_data_out_l [15:0] $end
  $var wire 16 a rj_data_out_r [15:0] $end
  $var wire 1 * coeff_wr_en_l $end
  $var wire 1 + coeff_wr_en_r $end
  $var wire 9 , coeff_addr_l [8:0] $end
  $var wire 9 - coeff_addr_r [8:0] $end
  $var wire 16 . coeff_data_in_l [15:0] $end
  $var wire 16 / coeff_data_in_r [15:0] $end
  $var wire 16 b coeff_data_out_l [15:0] $end
  $var wire 16 c coeff_data_out_r [15:0] $end
  $var wire 1 0 data_wr_en_l $end
  $var wire 1 1 data_wr_en_r $end
  $var wire 4 2 read_offset_l [3:0] $end
  $var wire 4 3 read_offset_r [3:0] $end
  $var wire 16 4 data_in_l [15:0] $end
  $var wire 16 5 data_in_r [15:0] $end
  $var wire 16 d data_out_l [15:0] $end
  $var wire 16 e data_out_r [15:0] $end
  $scope module coeff_mem $end
   $var wire 1 _ clk $end
   $var wire 1 * coeff_wr_en_l $end
   $var wire 1 + coeff_wr_en_r $end
   $var wire 9 , coeff_addr_l [8:0] $end
   $var wire 9 - coeff_addr_r [8:0] $end
   $var wire 16 . coeff_data_in_l [15:0] $end
   $var wire 16 / coeff_data_in_r [15:0] $end
   $var wire 16 b coeff_data_out_l [15:0] $end
   $var wire 16 c coeff_data_out_r [15:0] $end
  $upscope $end
  $scope module data_fifo $end
   $var wire 1 _ clk $end
   $var wire 1 # rst_n $end
   $var wire 1 0 data_wr_en_l $end
   $var wire 1 1 data_wr_en_r $end
   $var wire 4 2 read_offset_l [3:0] $end
   $var wire 4 3 read_offset_r [3:0] $end
   $var wire 16 4 data_in_l [15:0] $end
   $var wire 16 5 data_in_r [15:0] $end
   $var wire 16 d data_out_l [15:0] $end
   $var wire 16 e data_out_r [15:0] $end
   $var wire 8 f wr_ptr_l [7:0] $end
   $var wire 8 j wr_ptr_l_offset [7:0] $end
   $var wire 8 g wr_ptr_r [7:0] $end
   $var wire 8 h read_addr_l [7:0] $end
   $var wire 8 i read_addr_r [7:0] $end
  $upscope $end
  $scope module rj_mem $end
   $var wire 1 _ clk $end
   $var wire 1 $ rj_wr_en_l $end
   $var wire 1 % rj_wr_en_r $end
   $var wire 4 & rj_addr_l [3:0] $end
   $var wire 4 ' rj_addr_r [3:0] $end
   $var wire 16 ( rj_data_in_l [15:0] $end
   $var wire 16 ) rj_data_in_r [15:0] $end
   $var wire 16 ` rj_data_out_l [15:0] $end
   $var wire 16 a rj_data_out_r [15:0] $end
   $var wire 16 ? rj_mem_l[0] [15:0] $end
   $var wire 16 @ rj_mem_l[1] [15:0] $end
   $var wire 16 A rj_mem_l[2] [15:0] $end
   $var wire 16 B rj_mem_l[3] [15:0] $end
   $var wire 16 C rj_mem_l[4] [15:0] $end
   $var wire 16 D rj_mem_l[5] [15:0] $end
   $var wire 16 E rj_mem_l[6] [15:0] $end
   $var wire 16 F rj_mem_l[7] [15:0] $end
   $var wire 16 G rj_mem_l[8] [15:0] $end
   $var wire 16 H rj_mem_l[9] [15:0] $end
   $var wire 16 I rj_mem_l[10] [15:0] $end
   $var wire 16 J rj_mem_l[11] [15:0] $end
   $var wire 16 K rj_mem_l[12] [15:0] $end
   $var wire 16 L rj_mem_l[13] [15:0] $end
   $var wire 16 M rj_mem_l[14] [15:0] $end
   $var wire 16 N rj_mem_l[15] [15:0] $end
   $var wire 16 O rj_mem_r[0] [15:0] $end
   $var wire 16 P rj_mem_r[1] [15:0] $end
   $var wire 16 Q rj_mem_r[2] [15:0] $end
   $var wire 16 R rj_mem_r[3] [15:0] $end
   $var wire 16 S rj_mem_r[4] [15:0] $end
   $var wire 16 T rj_mem_r[5] [15:0] $end
   $var wire 16 U rj_mem_r[6] [15:0] $end
   $var wire 16 V rj_mem_r[7] [15:0] $end
   $var wire 16 W rj_mem_r[8] [15:0] $end
   $var wire 16 X rj_mem_r[9] [15:0] $end
   $var wire 16 Y rj_mem_r[10] [15:0] $end
   $var wire 16 Z rj_mem_r[11] [15:0] $end
   $var wire 16 [ rj_mem_r[12] [15:0] $end
   $var wire 16 \ rj_mem_r[13] [15:0] $end
   $var wire 16 ] rj_mem_r[14] [15:0] $end
   $var wire 16 ^ rj_mem_r[15] [15:0] $end
  $upscope $end
  $scope module unnamedblk1 $end
   $var wire 32 6 i [31:0] $end
  $upscope $end
  $scope module unnamedblk2 $end
   $var wire 32 7 i [31:0] $end
  $upscope $end
  $scope module unnamedblk3 $end
   $var wire 32 8 i [31:0] $end
  $upscope $end
  $scope module unnamedblk4 $end
   $var wire 32 9 i [31:0] $end
  $upscope $end
  $scope module unnamedblk5 $end
   $var wire 32 : i [31:0] $end
  $upscope $end
  $scope module unnamedblk6 $end
   $var wire 32 ; i [31:0] $end
  $upscope $end
  $scope module unnamedblk7 $end
   $var wire 32 < i [31:0] $end
  $upscope $end
  $scope module unnamedblk8 $end
   $var wire 32 = i [31:0] $end
  $upscope $end
  $scope module unnamedblk9 $end
   $var wire 32 > i [31:0] $end
  $upscope $end
 $upscope $end
$enddefinitions $end


#0
0#
0$
0%
b0000 &
b0000 '
b0000000000000000 (
b0000000000000000 )
0*
0+
b000000000 ,
b000000000 -
b0000000000000000 .
b0000000000000000 /
00
01
b0000 2
b0000 3
b0000000000000000 4
b0000000000000000 5
b00000000000000000000000000000000 6
b00000000000000000000000000000000 7
b00000000000000000000000000000000 8
b00000000000000000000000000000000 9
b00000000000000000000000000000000 :
b00000000000000000000000000000000 ;
b00000000000000000000000000000000 <
b00000000000000000000000000000000 =
b00000000000000000000000000000000 >
b0000000000000000 ?
b0000000000000000 @
b0000000000000000 A
b0000000000000000 B
b0000000000000000 C
b0000000000000000 D
b0000000000000000 E
b0000000000000000 F
b0000000000000000 G
b0000000000000000 H
b0000000000000000 I
b0000000000000000 J
b0000000000000000 K
b0000000000000000 L
b0000000000000000 M
b0000000000000000 N
b0000000000000000 O
b0000000000000000 P
b0000000000000000 Q
b0000000000000000 R
b0000000000000000 S
b0000000000000000 T
b0000000000000000 U
b0000000000000000 V
b0000000000000000 W
b0000000000000000 X
b0000000000000000 Y
b0000000000000000 Z
b0000000000000000 [
b0000000000000000 \
b0000000000000000 ]
b0000000000000000 ^
0_
b0000000000000000 `
b0000000000000000 a
b0000000000000000 b
b0000000000000000 c
b0000000000000000 d
b0000000000000000 e
b00000000 f
b00000000 g
b00000000 h
b00000000 i
b00000000 j
#5
1#
1_
#10
0_
#15
1$
b1010000000000000 (
b00000000000000000000000000000001 6
b1010000000000000 ?
1_
b1010000000000000 `
#20
0_
#25
b0001 &
b1010000000000001 (
b00000000000000000000000000000010 6
b1010000000000001 @
1_
b1010000000000001 `
#30
0_
#35
b0010 &
b1010000000000010 (
b00000000000000000000000000000011 6
b1010000000000010 A
1_
b1010000000000010 `
#40
0_
#45
b0011 &
b1010000000000011 (
b00000000000000000000000000000100 6
b1010000000000011 B
1_
b1010000000000011 `
#50
0_
#55
b0100 &
b1010000000000100 (
b00000000000000000000000000000101 6
b1010000000000100 C
1_
b1010000000000100 `
#60
0_
#65
b0101 &
b1010000000000101 (
b00000000000000000000000000000110 6
b1010000000000101 D
1_
b1010000000000101 `
#70
0_
#75
b0110 &
b1010000000000110 (
b00000000000000000000000000000111 6
b1010000000000110 E
1_
b1010000000000110 `
#80
0_
#85
b0111 &
b1010000000000111 (
b00000000000000000000000000001000 6
b1010000000000111 F
1_
b1010000000000111 `
#90
0_
#95
b1000 &
b1010000000001000 (
b00000000000000000000000000001001 6
b1010000000001000 G
1_
b1010000000001000 `
#100
0_
#105
b1001 &
b1010000000001001 (
b00000000000000000000000000001010 6
b1010000000001001 H
1_
b1010000000001001 `
#110
0_
#115
b1010 &
b1010000000001010 (
b00000000000000000000000000001011 6
b1010000000001010 I
1_
b1010000000001010 `
#120
0_
#125
b1011 &
b1010000000001011 (
b00000000000000000000000000001100 6
b1010000000001011 J
1_
b1010000000001011 `
#130
0_
#135
b1100 &
b1010000000001100 (
b00000000000000000000000000001101 6
b1010000000001100 K
1_
b1010000000001100 `
#140
0_
#145
b1101 &
b1010000000001101 (
b00000000000000000000000000001110 6
b1010000000001101 L
1_
b1010000000001101 `
#150
0_
#155
b1110 &
b1010000000001110 (
b00000000000000000000000000001111 6
b1010000000001110 M
1_
b1010000000001110 `
#160
0_
#165
b1111 &
b1010000000001111 (
b00000000000000000000000000010000 6
b1010000000001111 N
1_
b1010000000001111 `
#170
0_
#175
1%
b1011000000000000 )
b00000000000000000000000000000001 7
b1011000000000000 O
1_
b1011000000000000 a
#180
0_
#185
b0001 '
b1011000000000001 )
b00000000000000000000000000000010 7
b1011000000000001 P
1_
b1011000000000001 a
#190
0_
#195
b0010 '
b1011000000000010 )
b00000000000000000000000000000011 7
b1011000000000010 Q
1_
b1011000000000010 a
#200
0_
#205
b0011 '
b1011000000000011 )
b00000000000000000000000000000100 7
b1011000000000011 R
1_
b1011000000000011 a
#210
0_
#215
b0100 '
b1011000000000100 )
b00000000000000000000000000000101 7
b1011000000000100 S
1_
b1011000000000100 a
#220
0_
#225
b0101 '
b1011000000000101 )
b00000000000000000000000000000110 7
b1011000000000101 T
1_
b1011000000000101 a
#230
0_
#235
b0110 '
b1011000000000110 )
b00000000000000000000000000000111 7
b1011000000000110 U
1_
b1011000000000110 a
#240
0_
#245
b0111 '
b1011000000000111 )
b00000000000000000000000000001000 7
b1011000000000111 V
1_
b1011000000000111 a
#250
0_
#255
b1000 '
b1011000000001000 )
b00000000000000000000000000001001 7
b1011000000001000 W
1_
b1011000000001000 a
#260
0_
#265
b1001 '
b1011000000001001 )
b00000000000000000000000000001010 7
b1011000000001001 X
1_
b1011000000001001 a
#270
0_
#275
b1010 '
b1011000000001010 )
b00000000000000000000000000001011 7
b1011000000001010 Y
1_
b1011000000001010 a
#280
0_
#285
b1011 '
b1011000000001011 )
b00000000000000000000000000001100 7
b1011000000001011 Z
1_
b1011000000001011 a
#290
0_
#295
b1100 '
b1011000000001100 )
b00000000000000000000000000001101 7
b1011000000001100 [
1_
b1011000000001100 a
#300
0_
#305
b1101 '
b1011000000001101 )
b00000000000000000000000000001110 7
b1011000000001101 \
1_
b1011000000001101 a
#310
0_
#315
b1110 '
b1011000000001110 )
b00000000000000000000000000001111 7
b1011000000001110 ]
1_
b1011000000001110 a
#320
0_
#325
b1111 '
b1011000000001111 )
b00000000000000000000000000010000 7
b1011000000001111 ^
1_
b1011000000001111 a
#330
0_
#335
0$
0%
1_
#340
0_
#345
b0000 &
b0000 '
1_
b1010000000000000 `
b1011000000000000 a
#346
b00000000000000000000000000000001 8
#350
0_
#355
b0001 &
b0001 '
1_
b1010000000000001 `
b1011000000000001 a
#356
b00000000000000000000000000000010 8
#360
0_
#365
b0010 &
b0010 '
1_
b1010000000000010 `
b1011000000000010 a
#366
b00000000000000000000000000000011 8
#370
0_
#375
b0011 &
b0011 '
1_
b1010000000000011 `
b1011000000000011 a
#376
b00000000000000000000000000000100 8
#380
0_
#385
b0100 &
b0100 '
1_
b1010000000000100 `
b1011000000000100 a
#386
b00000000000000000000000000000101 8
#390
0_
#395
b0101 &
b0101 '
1_
b1010000000000101 `
b1011000000000101 a
#396
b00000000000000000000000000000110 8
#400
0_
#405
b0110 &
b0110 '
1_
b1010000000000110 `
b1011000000000110 a
#406
b00000000000000000000000000000111 8
#410
0_
#415
b0111 &
b0111 '
1_
b1010000000000111 `
b1011000000000111 a
#416
b00000000000000000000000000001000 8
#420
0_
#425
b1000 &
b1000 '
1_
b1010000000001000 `
b1011000000001000 a
#426
b00000000000000000000000000001001 8
#430
0_
#435
b1001 &
b1001 '
1_
b1010000000001001 `
b1011000000001001 a
#436
b00000000000000000000000000001010 8
#440
0_
#445
b1010 &
b1010 '
1_
b1010000000001010 `
b1011000000001010 a
#446
b00000000000000000000000000001011 8
#450
0_
#455
b1011 &
b1011 '
1_
b1010000000001011 `
b1011000000001011 a
#456
b00000000000000000000000000001100 8
#460
0_
#465
b1100 &
b1100 '
1_
b1010000000001100 `
b1011000000001100 a
#466
b00000000000000000000000000001101 8
#470
0_
#475
b1101 &
b1101 '
1_
b1010000000001101 `
b1011000000001101 a
#476
b00000000000000000000000000001110 8
#480
0_
#485
b1110 &
b1110 '
1_
b1010000000001110 `
b1011000000001110 a
#486
b00000000000000000000000000001111 8
#490
0_
#495
b1111 &
b1111 '
1_
b1010000000001111 `
b1011000000001111 a
#496
b00000000000000000000000000010000 8
#500
0_
#505
1*
b1100000000000000 .
b00000000000000000000000000110010 9
1_
b1100000000000000 b
#510
0_
#515
b000110010 ,
b1100000000110010 .
b00000000000000000000000001100100 9
1_
b1100000000110010 b
#520
0_
#525
b001100100 ,
b1100000001100100 .
b00000000000000000000000010010110 9
1_
b1100000001100100 b
#530
0_
#535
b010010110 ,
b1100000010010110 .
b00000000000000000000000011001000 9
1_
b1100000010010110 b
#540
0_
#545
b011001000 ,
b1100000011001000 .
b00000000000000000000000011111010 9
1_
b1100000011001000 b
#550
0_
#555
b011111010 ,
b1100000011111010 .
b00000000000000000000000100101100 9
1_
b1100000011111010 b
#560
0_
#565
b100101100 ,
b1100000100101100 .
b00000000000000000000000101011110 9
1_
b1100000100101100 b
#570
0_
#575
b101011110 ,
b1100000101011110 .
b00000000000000000000000110010000 9
1_
b1100000101011110 b
#580
0_
#585
b110010000 ,
b1100000110010000 .
b00000000000000000000000111000010 9
1_
b1100000110010000 b
#590
0_
#595
b111000010 ,
b1100000111000010 .
b00000000000000000000000111110100 9
1_
b1100000111000010 b
#600
0_
#605
b111110100 ,
b1100000111110100 .
b00000000000000000000001000100110 9
1_
b1100000111110100 b
#610
0_
#615
1+
b1101000000000000 /
b00000000000000000000000000110010 :
1_
b1101000000000000 c
#620
0_
#625
b000110010 -
b1101000000110010 /
b00000000000000000000000001100100 :
1_
b1101000000110010 c
#630
0_
#635
b001100100 -
b1101000001100100 /
b00000000000000000000000010010110 :
1_
b1101000001100100 c
#640
0_
#645
b010010110 -
b1101000010010110 /
b00000000000000000000000011001000 :
1_
b1101000010010110 c
#650
0_
#655
b011001000 -
b1101000011001000 /
b00000000000000000000000011111010 :
1_
b1101000011001000 c
#660
0_
#665
b011111010 -
b1101000011111010 /
b00000000000000000000000100101100 :
1_
b1101000011111010 c
#670
0_
#675
b100101100 -
b1101000100101100 /
b00000000000000000000000101011110 :
1_
b1101000100101100 c
#680
0_
#685
b101011110 -
b1101000101011110 /
b00000000000000000000000110010000 :
1_
b1101000101011110 c
#690
0_
#695
b110010000 -
b1101000110010000 /
b00000000000000000000000111000010 :
1_
b1101000110010000 c
#700
0_
#705
b111000010 -
b1101000111000010 /
b00000000000000000000000111110100 :
1_
b1101000111000010 c
#710
0_
#715
b111110100 -
b1101000111110100 /
b00000000000000000000001000100110 :
1_
b1101000111110100 c
#720
0_
#725
0*
0+
1_
#730
0_
#735
b000000000 ,
b000000000 -
1_
b1100000000000000 b
b1101000000000000 c
#736
b00000000000000000000000000110010 ;
#740
0_
#745
b000110010 ,
b000110010 -
1_
b1100000000110010 b
b1101000000110010 c
#746
b00000000000000000000000001100100 ;
#750
0_
#755
b001100100 ,
b001100100 -
1_
b1100000001100100 b
b1101000001100100 c
#756
b00000000000000000000000010010110 ;
#760
0_
#765
b010010110 ,
b010010110 -
1_
b1100000010010110 b
b1101000010010110 c
#766
b00000000000000000000000011001000 ;
#770
0_
#775
b011001000 ,
b011001000 -
1_
b1100000011001000 b
b1101000011001000 c
#776
b00000000000000000000000011111010 ;
#780
0_
#785
b011111010 ,
b011111010 -
1_
b1100000011111010 b
b1101000011111010 c
#786
b00000000000000000000000100101100 ;
#790
0_
#795
b100101100 ,
b100101100 -
1_
b1100000100101100 b
b1101000100101100 c
#796
b00000000000000000000000101011110 ;
#800
0_
#805
b101011110 ,
b101011110 -
1_
b1100000101011110 b
b1101000101011110 c
#806
b00000000000000000000000110010000 ;
#810
0_
#815
b110010000 ,
b110010000 -
1_
b1100000110010000 b
b1101000110010000 c
#816
b00000000000000000000000111000010 ;
#820
0_
#825
b111000010 ,
b111000010 -
1_
b1100000111000010 b
b1101000111000010 c
#826
b00000000000000000000000111110100 ;
#830
0_
#835
b111110100 ,
b111110100 -
1_
b1100000111110100 b
b1101000111110100 c
#836
b00000000000000000000001000100110 ;
#840
0_
#845
10
b1100000000000000 4
b00000000000000000000000000000001 <
1_
b1100000000000000 d
b00000001 f
b00000001 h
#850
0_
#855
b1100000000000001 4
b00000000000000000000000000000010 <
1_
b1100000000000001 d
b00000010 f
b00000010 h
#860
0_
#865
b1100000000000010 4
b00000000000000000000000000000011 <
1_
b1100000000000010 d
b00000011 f
b00000011 h
#870
0_
#875
b1100000000000011 4
b00000000000000000000000000000100 <
1_
b1100000000000011 d
b00000100 f
b00000100 h
#880
0_
#885
b1100000000000100 4
b00000000000000000000000000000101 <
1_
b1100000000000100 d
b00000101 f
b00000101 h
#890
0_
#895
b1100000000000101 4
b00000000000000000000000000000110 <
1_
b1100000000000101 d
b00000110 f
b00000110 h
#900
0_
#905
b1100000000000110 4
b00000000000000000000000000000111 <
1_
b1100000000000110 d
b00000111 f
b00000111 h
#910
0_
#915
b1100000000000111 4
b00000000000000000000000000001000 <
1_
b1100000000000111 d
b00001000 f
b00001000 h
#920
0_
#925
b1100000000001000 4
b00000000000000000000000000001001 <
1_
b1100000000001000 d
b00001001 f
b00001001 h
#930
0_
#935
b1100000000001001 4
b00000000000000000000000000001010 <
1_
b1100000000001001 d
b00001010 f
b00001010 h
#940
0_
#945
00
11
b1101000000000000 5
b00000000000000000000000000000001 =
1_
b1101000000000000 e
b00000001 g
b00000001 i
#950
0_
#955
b1101000000000001 5
b00000000000000000000000000000010 =
1_
b1101000000000001 e
b00000010 g
b00000010 i
#960
0_
#965
b1101000000000010 5
b00000000000000000000000000000011 =
1_
b1101000000000010 e
b00000011 g
b00000011 i
#970
0_
#975
b1101000000000011 5
b00000000000000000000000000000100 =
1_
b1101000000000011 e
b00000100 g
b00000100 i
#980
0_
#985
b1101000000000100 5
b00000000000000000000000000000101 =
1_
b1101000000000100 e
b00000101 g
b00000101 i
#990
0_
#995
b1101000000000101 5
b00000000000000000000000000000110 =
1_
b1101000000000101 e
b00000110 g
b00000110 i
#1000
0_
#1005
b1101000000000110 5
b00000000000000000000000000000111 =
1_
b1101000000000110 e
b00000111 g
b00000111 i
#1010
0_
#1015
b1101000000000111 5
b00000000000000000000000000001000 =
1_
b1101000000000111 e
b00001000 g
b00001000 i
#1020
0_
#1025
b1101000000001000 5
b00000000000000000000000000001001 =
1_
b1101000000001000 e
b00001001 g
b00001001 i
#1030
0_
#1035
b1101000000001001 5
b00000000000000000000000000001010 =
1_
b1101000000001001 e
b00001010 g
b00001010 i
#1040
0_
#1045
01
b0010 2
1_
b1100000000000111 d
b00001000 h
#1046
#1050
0_
#1055
b0101 3
1_
b1101000000000100 e
b00000101 i
#1056
#1060
0_
#1065
10
b1110000000000000 4
b00000000000000000000000000000001 >
1_
b1100000000001000 d
b00001011 f
b00001001 h
#1070
0_
#1075
b1110000000000001 4
b00000000000000000000000000000010 >
1_
b1100000000001001 d
b00001100 f
b00001010 h
#1080
0_
#1085
b1110000000000010 4
b00000000000000000000000000000011 >
1_
b1110000000000000 d
b00001101 f
b00001011 h
#1090
0_
#1095
b1110000000000011 4
b00000000000000000000000000000100 >
1_
b1110000000000001 d
b00001110 f
b00001100 h
#1100
0_
#1105
b1110000000000100 4
b00000000000000000000000000000101 >
1_
b1110000000000010 d
b00001111 f
b00001101 h
#1110
0_
#1115
b1110000000000101 4
b00000000000000000000000000000110 >
1_
b1110000000000011 d
b00010000 f
b00001110 h
#1120
0_
#1125
b1110000000000110 4
b00000000000000000000000000000111 >
1_
b1110000000000100 d
b00010001 f
b00001111 h
#1130
0_
#1135
b1110000000000111 4
b00000000000000000000000000001000 >
1_
b1110000000000101 d
b00010010 f
b00010000 h
#1140
0_
#1145
b1110000000001000 4
b00000000000000000000000000001001 >
1_
b1110000000000110 d
b00010011 f
b00010001 h
#1150
0_
#1155
b1110000000001001 4
b00000000000000000000000000001010 >
1_
b1110000000000111 d
b00010100 f
b00010010 h
#1160
0_
#1165
b1110000000001010 4
b00000000000000000000000000001011 >
1_
b1110000000001000 d
b00010101 f
b00010011 h
#1170
0_
#1175
b1110000000001011 4
b00000000000000000000000000001100 >
1_
b1110000000001001 d
b00010110 f
b00010100 h
#1180
0_
#1185
b1110000000001100 4
b00000000000000000000000000001101 >
1_
b1110000000001010 d
b00010111 f
b00010101 h
#1190
0_
#1195
b1110000000001101 4
b00000000000000000000000000001110 >
1_
b1110000000001011 d
b00011000 f
b00010110 h
#1200
0_
#1205
b1110000000001110 4
b00000000000000000000000000001111 >
1_
b1110000000001100 d
b00011001 f
b00010111 h
#1210
0_
#1215
b1110000000001111 4
b00000000000000000000000000010000 >
1_
b1110000000001101 d
b00011010 f
b00011000 h
#1220
0_
#1225
b1110000000010000 4
b00000000000000000000000000010001 >
1_
b1110000000001110 d
b00011011 f
b00011001 h
#1230
0_
#1235
b1110000000010001 4
b00000000000000000000000000010010 >
1_
b1110000000001111 d
b00011100 f
b00011010 h
#1240
0_
#1245
b1110000000010010 4
b00000000000000000000000000010011 >
1_
b1110000000010000 d
b00011101 f
b00011011 h
#1250
0_
#1255
b1110000000010011 4
b00000000000000000000000000010100 >
1_
b1110000000010001 d
b00011110 f
b00011100 h
#1260
0_
#1265
b1110000000010100 4
b00000000000000000000000000010101 >
1_
b1110000000010010 d
b00011111 f
b00011101 h
#1270
0_
#1275
b1110000000010101 4
b00000000000000000000000000010110 >
1_
b1110000000010011 d
b00100000 f
b00011110 h
#1280
0_
#1285
b1110000000010110 4
b00000000000000000000000000010111 >
1_
b1110000000010100 d
b00100001 f
b00011111 h
#1290
0_
#1295
b1110000000010111 4
b00000000000000000000000000011000 >
1_
b1110000000010101 d
b00100010 f
b00100000 h
#1300
0_
#1305
b1110000000011000 4
b00000000000000000000000000011001 >
1_
b1110000000010110 d
b00100011 f
b00100001 h
#1310
0_
#1315
b1110000000011001 4
b00000000000000000000000000011010 >
1_
b1110000000010111 d
b00100100 f
b00100010 h
#1320
0_
#1325
b1110000000011010 4
b00000000000000000000000000011011 >
1_
b1110000000011000 d
b00100101 f
b00100011 h
#1330
0_
#1335
b1110000000011011 4
b00000000000000000000000000011100 >
1_
b1110000000011001 d
b00100110 f
b00100100 h
#1340
0_
#1345
b1110000000011100 4
b00000000000000000000000000011101 >
1_
b1110000000011010 d
b00100111 f
b00100101 h
#1350
0_
#1355
b1110000000011101 4
b00000000000000000000000000011110 >
1_
b1110000000011011 d
b00101000 f
b00100110 h
#1360
0_
#1365
b1110000000011110 4
b00000000000000000000000000011111 >
1_
b1110000000011100 d
b00101001 f
b00100111 h
#1370
0_
#1375
b1110000000011111 4
b00000000000000000000000000100000 >
1_
b1110000000011101 d
b00101010 f
b00101000 h
#1380
0_
#1385
b1110000000100000 4
b00000000000000000000000000100001 >
1_
b1110000000011110 d
b00101011 f
b00101001 h
#1390
0_
#1395
b1110000000100001 4
b00000000000000000000000000100010 >
1_
b1110000000011111 d
b00101100 f
b00101010 h
#1400
0_
#1405
b1110000000100010 4
b00000000000000000000000000100011 >
1_
b1110000000100000 d
b00101101 f
b00101011 h
#1410
0_
#1415
b1110000000100011 4
b00000000000000000000000000100100 >
1_
b1110000000100001 d
b00101110 f
b00101100 h
#1420
0_
#1425
b1110000000100100 4
b00000000000000000000000000100101 >
1_
b1110000000100010 d
b00101111 f
b00101101 h
#1430
0_
#1435
b1110000000100101 4
b00000000000000000000000000100110 >
1_
b1110000000100011 d
b00110000 f
b00101110 h
#1440
0_
#1445
b1110000000100110 4
b00000000000000000000000000100111 >
1_
b1110000000100100 d
b00110001 f
b00101111 h
#1450
0_
#1455
b1110000000100111 4
b00000000000000000000000000101000 >
1_
b1110000000100101 d
b00110010 f
b00110000 h
#1460
0_
#1465
b1110000000101000 4
b00000000000000000000000000101001 >
1_
b1110000000100110 d
b00110011 f
b00110001 h
#1470
0_
#1475
b1110000000101001 4
b00000000000000000000000000101010 >
1_
b1110000000100111 d
b00110100 f
b00110010 h
#1480
0_
#1485
b1110000000101010 4
b00000000000000000000000000101011 >
1_
b1110000000101000 d
b00110101 f
b00110011 h
#1490
0_
#1495
b1110000000101011 4
b00000000000000000000000000101100 >
1_
b1110000000101001 d
b00110110 f
b00110100 h
#1500
0_
#1505
b1110000000101100 4
b00000000000000000000000000101101 >
1_
b1110000000101010 d
b00110111 f
b00110101 h
#1510
0_
#1515
b1110000000101101 4
b00000000000000000000000000101110 >
1_
b1110000000101011 d
b00111000 f
b00110110 h
#1520
0_
#1525
b1110000000101110 4
b00000000000000000000000000101111 >
1_
b1110000000101100 d
b00111001 f
b00110111 h
#1530
0_
#1535
b1110000000101111 4
b00000000000000000000000000110000 >
1_
b1110000000101101 d
b00111010 f
b00111000 h
#1540
0_
#1545
b1110000000110000 4
b00000000000000000000000000110001 >
1_
b1110000000101110 d
b00111011 f
b00111001 h
#1550
0_
#1555
b1110000000110001 4
b00000000000000000000000000110010 >
1_
b1110000000101111 d
b00111100 f
b00111010 h
#1560
0_
#1565
b1110000000110010 4
b00000000000000000000000000110011 >
1_
b1110000000110000 d
b00111101 f
b00111011 h
#1570
0_
#1575
b1110000000110011 4
b00000000000000000000000000110100 >
1_
b1110000000110001 d
b00111110 f
b00111100 h
#1580
0_
#1585
b1110000000110100 4
b00000000000000000000000000110101 >
1_
b1110000000110010 d
b00111111 f
b00111101 h
#1590
0_
#1595
b1110000000110101 4
b00000000000000000000000000110110 >
1_
b1110000000110011 d
b01000000 f
b00111110 h
#1600
0_
#1605
b1110000000110110 4
b00000000000000000000000000110111 >
1_
b1110000000110100 d
b01000001 f
b00111111 h
#1610
0_
#1615
b1110000000110111 4
b00000000000000000000000000111000 >
1_
b1110000000110101 d
b01000010 f
b01000000 h
#1620
0_
#1625
b1110000000111000 4
b00000000000000000000000000111001 >
1_
b1110000000110110 d
b01000011 f
b01000001 h
#1630
0_
#1635
b1110000000111001 4
b00000000000000000000000000111010 >
1_
b1110000000110111 d
b01000100 f
b01000010 h
#1640
0_
#1645
b1110000000111010 4
b00000000000000000000000000111011 >
1_
b1110000000111000 d
b01000101 f
b01000011 h
#1650
0_
#1655
b1110000000111011 4
b00000000000000000000000000111100 >
1_
b1110000000111001 d
b01000110 f
b01000100 h
#1660
0_
#1665
b1110000000111100 4
b00000000000000000000000000111101 >
1_
b1110000000111010 d
b01000111 f
b01000101 h
#1670
0_
#1675
b1110000000111101 4
b00000000000000000000000000111110 >
1_
b1110000000111011 d
b01001000 f
b01000110 h
#1680
0_
#1685
b1110000000111110 4
b00000000000000000000000000111111 >
1_
b1110000000111100 d
b01001001 f
b01000111 h
#1690
0_
#1695
b1110000000111111 4
b00000000000000000000000001000000 >
1_
b1110000000111101 d
b01001010 f
b01001000 h
#1700
0_
#1705
b1110000001000000 4
b00000000000000000000000001000001 >
1_
b1110000000111110 d
b01001011 f
b01001001 h
#1710
0_
#1715
b1110000001000001 4
b00000000000000000000000001000010 >
1_
b1110000000111111 d
b01001100 f
b01001010 h
#1720
0_
#1725
b1110000001000010 4
b00000000000000000000000001000011 >
1_
b1110000001000000 d
b01001101 f
b01001011 h
#1730
0_
#1735
b1110000001000011 4
b00000000000000000000000001000100 >
1_
b1110000001000001 d
b01001110 f
b01001100 h
#1740
0_
#1745
b1110000001000100 4
b00000000000000000000000001000101 >
1_
b1110000001000010 d
b01001111 f
b01001101 h
#1750
0_
#1755
b1110000001000101 4
b00000000000000000000000001000110 >
1_
b1110000001000011 d
b01010000 f
b01001110 h
#1760
0_
#1765
b1110000001000110 4
b00000000000000000000000001000111 >
1_
b1110000001000100 d
b01010001 f
b01001111 h
#1770
0_
#1775
b1110000001000111 4
b00000000000000000000000001001000 >
1_
b1110000001000101 d
b01010010 f
b01010000 h
#1780
0_
#1785
b1110000001001000 4
b00000000000000000000000001001001 >
1_
b1110000001000110 d
b01010011 f
b01010001 h
#1790
0_
#1795
b1110000001001001 4
b00000000000000000000000001001010 >
1_
b1110000001000111 d
b01010100 f
b01010010 h
#1800
0_
#1805
b1110000001001010 4
b00000000000000000000000001001011 >
1_
b1110000001001000 d
b01010101 f
b01010011 h
#1810
0_
#1815
b1110000001001011 4
b00000000000000000000000001001100 >
1_
b1110000001001001 d
b01010110 f
b01010100 h
#1820
0_
#1825
b1110000001001100 4
b00000000000000000000000001001101 >
1_
b1110000001001010 d
b01010111 f
b01010101 h
#1830
0_
#1835
b1110000001001101 4
b00000000000000000000000001001110 >
1_
b1110000001001011 d
b01011000 f
b01010110 h
#1840
0_
#1845
b1110000001001110 4
b00000000000000000000000001001111 >
1_
b1110000001001100 d
b01011001 f
b01010111 h
#1850
0_
#1855
b1110000001001111 4
b00000000000000000000000001010000 >
1_
b1110000001001101 d
b01011010 f
b01011000 h
#1860
0_
#1865
b1110000001010000 4
b00000000000000000000000001010001 >
1_
b1110000001001110 d
b01011011 f
b01011001 h
#1870
0_
#1875
b1110000001010001 4
b00000000000000000000000001010010 >
1_
b1110000001001111 d
b01011100 f
b01011010 h
#1880
0_
#1885
b1110000001010010 4
b00000000000000000000000001010011 >
1_
b1110000001010000 d
b01011101 f
b01011011 h
#1890
0_
