S2P/tb.vcd
$version Generated by VerilatedVcd $end
$timescale 1ps $end
 $scope module $rootio $end
 $upscope $end
 $scope module tb_serial_to_parallel_converter $end
  $var wire 1 # DCLK $end
  $var wire 1 $ Reset_n $end
  $var wire 1 % InputL $end
  $var wire 1 & InputR $end
  $var wire 16 ' ParallelL [15:0] $end
  $var wire 16 ( ParallelR [15:0] $end
  $scope module dut $end
   $var wire 1 # DCLK $end
   $var wire 1 $ Reset_n $end
   $var wire 1 % InputL $end
   $var wire 1 & InputR $end
   $var wire 16 ' ParallelL [15:0] $end
   $var wire 16 ( ParallelR [15:0] $end
  $upscope $end
 $upscope $end
$enddefinitions $end


#0
0#
0$
0%
0&
b0000000000000000 '
b0000000000000000 (
#5
1#
#10
0#
1$
#15
1#
#20
0#
1%
b0000000000000001 '
#25
1#
#30
0#
0%
b0000000000000010 '
#35
1#
#40
0#
1%
b0000000000000101 '
#45
1#
#50
0#
0%
b0000000000001010 '
#55
1#
#60
0#
1%
b0000000000010101 '
#65
1#
#70
0#
b0000000000101011 '
#75
1#
#80
0#
0%
b0000000001010110 '
#85
1#
#90
0#
b0000000010101100 '
#95
1#
#100
0#
b0000000101011000 '
#105
1#
#110
0#
1%
b0000001010110001 '
#115
1#
#120
0#
b0000010101100011 '
#125
1#
#130
0#
0%
b0000101011000110 '
#135
1#
#140
0#
1%
b0001010110001101 '
#145
1#
#150
0#
0%
b0010101100011010 '
#155
1#
#160
0#
1%
b0101011000110101 '
#165
1#
#170
0#
b1010110001101011 '
#175
1#
#180
0#
b0101100011010111 '
#185
1#
#190
0#
1&
b1011000110101111 '
b0000000000000001 (
#195
1#
#200
0#
0&
b0110001101011111 '
b0000000000000010 (
#205
1#
#210
0#
1&
b1100011010111111 '
b0000000000000101 (
#215
1#
#220
0#
0&
b1000110101111111 '
b0000000000001010 (
#225
1#
#230
0#
b0001101011111111 '
b0000000000010100 (
#235
1#
#240
0#
1&
b0011010111111111 '
b0000000000101001 (
#245
1#
#250
0#
b0110101111111111 '
b0000000001010011 (
#255
1#
#260
0#
b1101011111111111 '
b0000000010100111 (
#265
1#
#270
0#
b1010111111111111 '
b0000000101001111 (
#275
1#
#280
0#
0&
b0101111111111111 '
b0000001010011110 (
#285
1#
#290
0#
b1011111111111111 '
b0000010100111100 (
#295
1#
#300
0#
1&
b0111111111111111 '
b0000101001111001 (
#305
1#
#310
0#
0&
b1111111111111111 '
b0001010011110010 (
#315
1#
#320
0#
1&
b0010100111100101 (
#325
1#
#330
0#
0&
b0101001111001010 (
#335
1#
#340
0#
0$
b0000000000000000 '
b0000000000000000 (
#345
1#
#350
0#
1$
b0000000000000001 '
#355
1#
#360
0#
b0000000000000011 '
#365
1#
#370
0#
b0000000000000111 '
#375
1#
#380
0#
b0000000000001111 '
